"Diode","Conversion Factor [rad/(min*nA)]","I_dark [nA]","Z_offset [mm]","Z_tube [mm]","V_tube [kV]","I_tube [mA]","I_diode [nA]"
"D1",55.4166,2.78,40.0,400,40,5,4.800
"D1",55.4166,2.78,40.0,400,40,10,6.976
"D1",55.4166,2.78,40.0,400,40,15,9.116
"D1",55.4166,2.78,40.0,400,40,20,11.213
