"Diode","Conversion Factor [rad/(min*nA)]","I_dark [nA]","Z_offset [mm]","Z_tube [mm]","V_tube [kV]","I_tube [mA]","I_diode [nA]"
"D3",56.3033,5.89,40.0,400,40,5,7.353
"D3",56.3033,5.89,40.0,400,40,10,9.465
"D3",56.3033,5.89,40.0,400,40,15,11.565
"D3",56.3033,5.89,40.0,400,40,20,13.658
